{
  "title": "Valentin Panchev's Portfolio",
  "slogan": "Senior Front-End Developer",
  "about": "Hey, I'm Valentin, a Senior Front-End Developer, Audio Producer and a Musician.\n\nI've been developing applications since i was 14, and after i graduated from SoftUni, I started my developer career. I've worked with various technologies, like VueJS, PolymerJS, Java Spring Boot, ExpressJS, HTML5, CSS, C++, C#, ActionScript and others. I've also used test utilities like Chai, Mocha, Jest, Celenium, Nightwatch and others.\n\n I've worked on various projects, which you can check at the /home page. It contains my most notable experiences in software development. \n\nIn my spare time, i like producing music, playing video games and cooking.   "
}
